<svg xmlns="http://www.w3.org/2000/svg" xmlns:xlink="http://www.w3.org/1999/xlink" width="102" height="109.377" viewBox="0 0 102 109.377">
  <defs>
    <clipPath id="clip-path">
      <rect id="Rectangle_1033" data-name="Rectangle 1033" width="102" height="109.377" fill="none"/>
    </clipPath>
  </defs>
  <g id="Groupe_3054" data-name="Groupe 3054" clip-path="url(#clip-path)">
    <path id="Tracé_13909" data-name="Tracé 13909" d="M43.5,198.8h0" transform="translate(-19.568 -89.428)" fill="#187c85"/>
    <path id="Tracé_13910" data-name="Tracé 13910" d="M46.253,18.7c3.3-.33,6.327-.5,9.133-.55C56.1-.386,45.593-7.593,15.444,12.708c-36.091,24.262,3.8,92.207,3.8,92.207S5.266,22.831,46.253,18.7" transform="translate(-0.149 -0.219)" fill="#0d2963"/>
    <path id="Tracé_13911" data-name="Tracé 13911" d="M46.253,18.7c3.3-.33,6.327-.5,9.133-.55C56.1-.386,45.593-7.593,15.444,12.708c-36.091,24.262,3.8,92.207,3.8,92.207S5.266,22.831,46.253,18.7Z" transform="translate(-0.149 -0.219)" fill="none" stroke="#0d2963" stroke-miterlimit="10" stroke-width="0.462"/>
    <path id="Tracé_13912" data-name="Tracé 13912" d="M113.846,54c3.136,1.375,5.942,2.7,8.527,4.071,6.107-14.964.77-26.078-25.527-25.582-.22,6.382-1.761,14.029-4.346,22.392,6.107-3.521,13.149-4.4,21.346-.88" transform="translate(-41.61 -14.607)" fill="#51a49a"/>
    <path id="Tracé_13913" data-name="Tracé 13913" d="M64.65,54.937C67.181,46.574,68.776,38.927,69,32.6c-2.806.055-5.832.22-9.133.55-40.987,4.126-26.958,86.155-26.958,86.155S41.818,68.2,64.65,54.937" transform="translate(-13.76 -14.665)" fill="#187c85"/>
    <path id="Tracé_13914" data-name="Tracé 13914" d="M96.518,79C88.486,98.586,60.813,124.828,34.9,140.178,85.68,138.307,152.469,108.269,96.518,79" transform="translate(-15.699 -35.537)" fill="#bdcc64"/>
    <path id="Tracé_13915" data-name="Tracé 13915" d="M96.473,73.824c-2.586-1.375-5.447-2.7-8.583-4.071-8.142-3.521-15.239-2.7-21.346.88C60.272,91.154,48.059,115.8,34.8,135,60.768,119.652,88.441,93.41,96.473,73.824" transform="translate(-15.654 -30.361)" fill="#81ac46"/>
    <path id="Tracé_13916" data-name="Tracé 13916" d="M34.8,137.569c13.259-19.2,25.472-43.848,31.744-64.369C43.713,86.459,34.8,137.569,34.8,137.569" transform="translate(-15.654 -32.928)" fill="#6a9b47"/>
  </g>
</svg>
